<?xml version="1.0" encoding="utf-8"?>
<!-- Generator: Adobe Illustrator 23.0.3, SVG Export Plug-In . SVG Version: 6.00 Build 0)  -->
<svg version="1.1" id="logosvg.com" xmlns="http://www.w3.org/2000/svg" xmlns:xlink="http://www.w3.org/1999/xlink" x="0px"
	 y="0px" viewBox="0 0 400 300" style="enable-background:new 0 0 400 300;" xml:space="preserve">
<style type="text/css">
	.st0{fill:#FF8200;}
</style>
<path id="orange" class="st0" d="M376.3,123.4h-8.8v20.5c-2.6-3-8.6-5.3-13.4-5.3c-14.4-0.1-21.6,9.5-21.6,19.5
	c0,9.5,6.4,19.6,20,19.6c5.9,0,11.8-2,14.9-6.3c0,1.7,0.9,4.2,1.2,5.1h8.5c-0.2-2.4-0.5-4.9-0.5-7.3V123.4z M355,170.9
	c-8.9,0-13.8-7.1-13.8-12.8c0-5.7,4.4-13.3,13.2-13.3c7.6,0.1,13,8.2,13.1,13.3C367.4,163.3,362.4,170.9,355,170.9z M199,138.7
	c-0.4,0-22.4,0.2-24.1,19.6c-1.1,11.5,8.9,19.5,24.1,19.5c15,0,24.1-7.9,24.1-19.5C223.1,147,213.1,139.3,199,138.7z M199,171.5
	c-8.5,0-14-7.4-14-13.2c0-6,5-13.1,14-13.1c8.8,0,13.8,7.1,13.8,13.1C212.8,164,207.4,171.5,199,171.5z M226.4,123.4h10.4v53.2
	h-10.4V123.4z M326.4,146.7c0.7,2.3,0.9,4.6,0.9,5.9v24h-8.7v-22.2c-0.2-4-1.7-9.2-8.5-9.2c-4.4,0-13.4,3.9-13.6,9.2h0v22.2h-9
	v-38.2h9v5.6l0.1,0.1c2.9-3.3,7.7-6.4,14.7-6.4C316.1,137.8,324.7,141.3,326.4,146.7z M281.3,152.5c0-11.2-9.3-13.9-18.6-13.8
	c-5,0-9.9,0.6-13.7,2.3c-3.7,1.7-6.1,4.6-6.3,9.2h9.7c-0.2-1.7,3.1-5.3,9.7-5.4c4.9,0.1,9.6,2.1,9.6,4.6v3.2v0.3
	c-5.5-0.1-15.8,0.1-21.3,2c-8.4,2.8-9.9,9-10,11.7c0.1,7.2,6.6,11.2,15.2,11.1c6.2,0,13.9-1.7,17-6c0,1.5,0.2,3.3,0.5,4.9h8.6
	c-0.2-1-0.5-2.1-0.6-4V152.5z M258.8,170.7c-3.9,0-7.8-0.5-7.6-5.6c0-3.8,7.3-7.2,20.6-5.8v1h0C271.6,168,266.5,170.7,258.8,170.7z
	 M162.7,151.5v-0.1c8.2-1.4,9.8-7.1,9.7-14c0-10.9-10.8-13.8-22.3-14h-25.9v53.2h10.5v-22.7h17.5c4.7,0.1,7.8,5.5,8.2,8.5
	c0.6,4.8,1.3,9.5,2.4,14.2h10.9c-2.7-2.9-3.2-9.2-3.8-12.6C168.9,156.7,169.8,152.8,162.7,151.5z M152.5,146.4h-17.7v-15.1h17.7
	c6.3,0.1,10,3.1,10,7.8C162.5,143.8,158.8,146.3,152.5,146.4z M42.1,157.9v3.1h75.3v5.8H36.3v-14.6h63.8c7.8-0.3,11.6-3.9,12.2-11.1
	c-0.8-7.8-5.2-10.9-12.2-11.3H10.2v46.6H4.4v-52.4h95.8c10,0.4,17.2,6.1,17.8,17c-0.3,10-6.6,16.5-17.8,16.9H42.1z M24.4,160.6
	c0.1-8.8,6.7-11.9,14.1-12.2h62.1v-14.9H14.7v42.1h5.8v-8.6c3.3,6.8,11,9.1,17.9,9.3H117v-5.8H38.5C30.9,170.4,25.8,168,24.4,160.6z
	 M20.4,152.2v-12.9h74.4v3.3H38.4C31.2,142.9,24,145.4,20.4,152.2z M391.2,121.9c-3.2,0-5.7,2.5-5.6,5.6c0,3,2.5,5.6,5.6,5.6
	c3-0.1,5.6-2.6,5.5-5.6C396.8,124.4,394.3,121.9,391.2,121.9z M391.2,132.5c-2.8-0.1-5.1-2.3-5-5c-0.1-2.8,2.2-5,4.9-5
	c2.8,0,5,2.2,5,5C396.1,130.2,393.9,132.5,391.2,132.5z M393,127.4c0.6-0.5,0.8-0.8,0.8-1.5c-0.1-1.4-1-1.6-1.9-1.7h-2.8v6.3h0.8
	v-2.7h2c1.3,0,1,1.1,1,1.9l0.1,0.8h1c-0.4-0.6-0.3-0.7-0.4-1.5C393.6,127.8,393.6,127.8,393,127.4z M391.9,127.1h-2V125h2
	c0.5,0,1.2,0.1,1.2,1.2C392.9,126.9,392.4,127.1,391.9,127.1z"/>
</svg>
